-7.202508300542831421e-02
-9.245610982179641724e-02
2.722232975065708160e-02
3.083676099777221680e-02
-1.613003015518188477e-02
4.721696302294731140e-02
-4.532758519053459167e-02
2.283779904246330261e-02
-9.042134508490562439e-03
9.554015100002288818e-02
-2.199993468821048737e-02
4.337867721915245056e-02
-4.000166803598403931e-02
-1.031886134296655655e-02
-2.595685981214046478e-02
2.858829125761985779e-02
2.848758362233638763e-02
2.767587453126907349e-02
-2.886784262955188751e-02
4.699397832155227661e-02
6.723961234092712402e-02
1.055044084787368774e-01
-1.062755882740020752e-01
-1.100854715332388878e-03
-6.089660152792930603e-02
6.903706490993499756e-02
-5.381330102682113647e-02
-1.006187754683196545e-03
7.958331704139709473e-02
-3.586842864751815796e-02
-1.735476404428482056e-02
3.476287052035331726e-02
